==============================================================================
Suites                                                                        
==============================================================================
Suites.ForgotStudentNumber Test                                               
==============================================================================
Viewing Student Number                                                | FAIL |
Setup failed:
WebDriverException: Message: Reached error page: about:neterror?e=dnsNotFound&u=https%3A//myadminqa.int.unisa.ac.za/services/forgot-studentnumber-app/&c=UTF-8&f=regular&d=We%20can%E2%80%99t%20connect%20to%20the%20server%20at%20myadminqa.int.unisa.ac.za.
------------------------------------------------------------------------------
Suites.ForgotStudentNumber Test                                       | FAIL |
1 critical test, 0 passed, 1 failed
1 test total, 0 passed, 1 failed
==============================================================================
Suites                                                                | FAIL |
1 critical test, 0 passed, 1 failed
1 test total, 0 passed, 1 failed
==============================================================================
Output:  C:\Users\tmaimakm\PycharmProject\AdminApps\results\pabot_results\2\rerun.xml
