<?xml version="1.0" encoding="UTF-8"?>
<robot generator="Rebot 3.1.2 (Python 3.8.1 on win32)" generated="20200411 15:48:21.871" rpa="false">
<suite id="s1" name="Suites">
<suite id="s1-s1" name="Biographic Service Test" source="C:\Users\tmaimakm\PycharmProject\AdminApps\TestCases\Biographic_Service_Test.robot">
<test id="s1-s1-t1" name="Viewing Biographic Details">
<kw name="Launch Browser" library="resources_BioServ" type="setup">
<kw name="Open Browser" library="SeleniumLibrary">
<doc>Opens a new browser instance to the optional ``url``.</doc>
<arguments>
<arg>${url}</arg>
<arg>${browser}</arg>
</arguments>
<msg timestamp="20200411 15:47:48.490" level="INFO">Opening browser 'headlessfirefox' to base url 'http://myadminqa.int.unisa.ac.za/portal/xlogin'.</msg>
<msg timestamp="20200411 15:47:48.495" level="INFO">Firefox driver log is always forced to to: C:\Users\tmaimakm\PycharmProject\AdminApps\results\pabot_results\0\geckodriver-1.log</msg>
<kw name="Capture Page Screenshot" library="SeleniumLibrary">
<doc>Takes a screenshot of the current page and embeds it into a log file.</doc>
<msg timestamp="20200411 15:48:06.853" level="INFO" html="yes">&lt;/td&gt;&lt;/tr&gt;&lt;tr&gt;&lt;td colspan="3"&gt;&lt;a href="0-selenium-screenshot-1.png"&gt;&lt;img src="0-selenium-screenshot-1.png" width="800px"&gt;&lt;/a&gt;</msg>
<status status="PASS" starttime="20200411 15:48:06.327" endtime="20200411 15:48:06.853"></status>
</kw>
<msg timestamp="20200411 15:48:06.868" level="FAIL">WebDriverException: Message: Reached error page: about:neterror?e=dnsNotFound&amp;u=http%3A//myadminqa.int.unisa.ac.za/portal/xlogin&amp;c=UTF-8&amp;f=regular&amp;d=We%20can%E2%80%99t%20connect%20to%20the%20server%20at%20myadminqa.int.unisa.ac.za.
</msg>
<status status="FAIL" starttime="20200411 15:47:48.490" endtime="20200411 15:48:06.868"></status>
</kw>
<status status="FAIL" starttime="20200411 15:47:48.489" endtime="20200411 15:48:06.869"></status>
</kw>
<kw name="Close Browser" library="SeleniumLibrary" type="teardown">
<doc>Closes the current browser.</doc>
<status status="PASS" starttime="20200411 15:48:06.871" endtime="20200411 15:48:21.303"></status>
</kw>
<status status="FAIL" starttime="20200411 15:47:48.488" endtime="20200411 15:48:21.303" critical="yes">Setup failed:
WebDriverException: Message: Reached error page: about:neterror?e=dnsNotFound&amp;u=http%3A//myadminqa.int.unisa.ac.za/portal/xlogin&amp;c=UTF-8&amp;f=regular&amp;d=We%20can%E2%80%99t%20connect%20to%20the%20server%20at%20myadminqa.int.unisa.ac.za.
</status>
</test>
<status status="FAIL" starttime="20200411 15:47:48.132" endtime="20200411 15:48:21.307"></status>
</suite>
<suite id="s1-s2" name="CreditCard Payment Test" source="C:\Users\tmaimakm\PycharmProject\AdminApps\TestCases\CreditCard_Payment_Test.robot">
<test id="s1-s2-t1" name="Access CreditCard Tool">
<kw name="Launch Browser" library="resources_CCP" type="setup">
<kw name="Open Browser" library="SeleniumLibrary">
<doc>Opens a new browser instance to the optional ``url``.</doc>
<arguments>
<arg>${url}</arg>
<arg>${browser}</arg>
</arguments>
<msg timestamp="20200411 15:47:48.454" level="INFO">Opening browser 'headlessfirefox' to base url 'https://myadminqa.int.unisa.ac.za/services/'.</msg>
<msg timestamp="20200411 15:47:48.455" level="INFO">Firefox driver log is always forced to to: C:\Users\tmaimakm\PycharmProject\AdminApps\results\pabot_results\1\geckodriver-1.log</msg>
<kw name="Capture Page Screenshot" library="SeleniumLibrary">
<doc>Takes a screenshot of the current page and embeds it into a log file.</doc>
<msg timestamp="20200411 15:48:06.853" level="INFO" html="yes">&lt;/td&gt;&lt;/tr&gt;&lt;tr&gt;&lt;td colspan="3"&gt;&lt;a href="1-selenium-screenshot-1.png"&gt;&lt;img src="1-selenium-screenshot-1.png" width="800px"&gt;&lt;/a&gt;</msg>
<status status="PASS" starttime="20200411 15:48:06.347" endtime="20200411 15:48:06.853"></status>
</kw>
<msg timestamp="20200411 15:48:06.869" level="FAIL">WebDriverException: Message: Reached error page: about:neterror?e=dnsNotFound&amp;u=https%3A//myadminqa.int.unisa.ac.za/services/&amp;c=UTF-8&amp;f=regular&amp;d=We%20can%E2%80%99t%20connect%20to%20the%20server%20at%20myadminqa.int.unisa.ac.za.
</msg>
<status status="FAIL" starttime="20200411 15:47:48.454" endtime="20200411 15:48:06.870"></status>
</kw>
<status status="FAIL" starttime="20200411 15:47:48.453" endtime="20200411 15:48:06.871"></status>
</kw>
<kw name="Close Browser" library="SeleniumLibrary" type="teardown">
<doc>Closes the current browser.</doc>
<status status="PASS" starttime="20200411 15:48:06.872" endtime="20200411 15:48:20.611"></status>
</kw>
<status status="FAIL" starttime="20200411 15:47:48.453" endtime="20200411 15:48:20.611" critical="yes">Setup failed:
WebDriverException: Message: Reached error page: about:neterror?e=dnsNotFound&amp;u=https%3A//myadminqa.int.unisa.ac.za/services/&amp;c=UTF-8&amp;f=regular&amp;d=We%20can%E2%80%99t%20connect%20to%20the%20server%20at%20myadminqa.int.unisa.ac.za.
</status>
</test>
<status status="FAIL" starttime="20200411 15:47:48.091" endtime="20200411 15:48:20.614"></status>
</suite>
<suite id="s1-s3" name="ForgotStudentNumber Test" source="C:\Users\tmaimakm\PycharmProject\AdminApps\TestCases\ForgotStudentNumber_Test.robot">
<test id="s1-s3-t1" name="Viewing Student Number">
<kw name="Launch Browser" library="resources_FSN" type="setup">
<kw name="Open Browser" library="SeleniumLibrary">
<doc>Opens a new browser instance to the optional ``url``.</doc>
<arguments>
<arg>${url}</arg>
<arg>${browser}</arg>
</arguments>
<msg timestamp="20200411 15:47:48.459" level="INFO">Opening browser 'headlessfirefox' to base url 'https://myadminqa.int.unisa.ac.za/services/forgot-studentnumber-app/'.</msg>
<msg timestamp="20200411 15:47:48.461" level="INFO">Firefox driver log is always forced to to: C:\Users\tmaimakm\PycharmProject\AdminApps\results\pabot_results\2\geckodriver-1.log</msg>
<kw name="Capture Page Screenshot" library="SeleniumLibrary">
<doc>Takes a screenshot of the current page and embeds it into a log file.</doc>
<msg timestamp="20200411 15:48:06.853" level="INFO" html="yes">&lt;/td&gt;&lt;/tr&gt;&lt;tr&gt;&lt;td colspan="3"&gt;&lt;a href="2-selenium-screenshot-1.png"&gt;&lt;img src="2-selenium-screenshot-1.png" width="800px"&gt;&lt;/a&gt;</msg>
<status status="PASS" starttime="20200411 15:48:06.342" endtime="20200411 15:48:06.853"></status>
</kw>
<msg timestamp="20200411 15:48:06.869" level="FAIL">WebDriverException: Message: Reached error page: about:neterror?e=dnsNotFound&amp;u=https%3A//myadminqa.int.unisa.ac.za/services/forgot-studentnumber-app/&amp;c=UTF-8&amp;f=regular&amp;d=We%20can%E2%80%99t%20connect%20to%20the%20server%20at%20myadminqa.int.unisa.ac.za.
</msg>
<status status="FAIL" starttime="20200411 15:47:48.459" endtime="20200411 15:48:06.869"></status>
</kw>
<status status="FAIL" starttime="20200411 15:47:48.458" endtime="20200411 15:48:06.870"></status>
</kw>
<kw name="Close Browser" library="SeleniumLibrary" type="teardown">
<doc>Closes the current browser.</doc>
<status status="PASS" starttime="20200411 15:48:06.871" endtime="20200411 15:48:21.289"></status>
</kw>
<status status="FAIL" starttime="20200411 15:47:48.457" endtime="20200411 15:48:21.290" critical="yes">Setup failed:
WebDriverException: Message: Reached error page: about:neterror?e=dnsNotFound&amp;u=https%3A//myadminqa.int.unisa.ac.za/services/forgot-studentnumber-app/&amp;c=UTF-8&amp;f=regular&amp;d=We%20can%E2%80%99t%20connect%20to%20the%20server%20at%20myadminqa.int.unisa.ac.za.
</status>
</test>
<status status="FAIL" starttime="20200411 15:47:48.098" endtime="20200411 15:48:21.293"></status>
</suite>
<doc>[https://pabot.org/?ref=log|Pabot] result from 3 executions.</doc>
<status status="FAIL" starttime="20200411 15:47:48.039" endtime="20200411 15:48:21.310"></status>
</suite>
<statistics>
<total>
<stat pass="0" fail="3">Critical Tests</stat>
<stat pass="0" fail="3">All Tests</stat>
</total>
<tag>
</tag>
<suite>
<stat pass="0" fail="3" id="s1" name="Suites">Suites</stat>
<stat pass="0" fail="1" id="s1-s1" name="Biographic Service Test">Suites.Biographic Service Test</stat>
<stat pass="0" fail="1" id="s1-s2" name="CreditCard Payment Test">Suites.CreditCard Payment Test</stat>
<stat pass="0" fail="1" id="s1-s3" name="ForgotStudentNumber Test">Suites.ForgotStudentNumber Test</stat>
</suite>
</statistics>
<errors>
</errors>
</robot>
